^C:\USERS\DOGONITI\SOURCE\REPOS\С++ HOME WORK\С++ HOME WORK\С++ HOME WORK.CPP
C:\USERS\DOGONITI\SOURCE\REPOS\С++ HOME WORK\С++ HOME WORK\X64\DEBUG\VC143.PDB
C:\USERS\DOGONITI\SOURCE\REPOS\С++ HOME WORK\С++ HOME WORK\X64\DEBUG\VC143.IDB
C:\USERS\DOGONITI\SOURCE\REPOS\С++ HOME WORK\С++ HOME WORK\X64\DEBUG\С++ HOME WORK.OBJ
