^C:\USERS\DOGONITI\SOURCE\REPOS\С++ HOME WORK\С++ HOME WORK\X64\DEBUG\С++ HOME WORK.OBJ
C:\USERS\DOGONITI\SOURCE\REPOS\С++ HOME WORK\X64\DEBUG\С++ HOME WORK.EXE
C:\USERS\DOGONITI\SOURCE\REPOS\С++ HOME WORK\С++ HOME WORK\X64\DEBUG\С++ HOME WORK.ILK
C:\USERS\DOGONITI\SOURCE\REPOS\С++ HOME WORK\X64\DEBUG\С++ HOME WORK.PDB
